{
  "project_info": {
    "project_number": "329396741555",
    "project_id": "drycleaning-298910",
    "storage_bucket": "drycleaning-298910.appspot.com"
  },
  "client": [
    {
      "client_info": {
        "mobilesdk_app_id": "1:329396741555:android:398c7e2c193c69145ad7c6",
        "android_client_info": {
          "package_name": "com.webmobril.drycleaning"
        }
      },
      "oauth_client": [
        {
          "client_id": "329396741555-c9e2pkmbuh67oeo3ontu7qnfpd9uvu62.apps.googleusercontent.com",
          "client_type": 3
        }
      ],
      "api_key": [
        {
          "current_key": "AIzaSyCsb6jzrOSw0FGjGHFTzJWim4YrELRQff8"
        }
      ],
      "services": {
        "appinvite_service": {
          "other_platform_oauth_client": [
            {
              "client_id": "329396741555-c9e2pkmbuh67oeo3ontu7qnfpd9uvu62.apps.googleusercontent.com",
              "client_type": 3
            }
          ]
        }
      }
    },
    {
      "client_info": {
        "mobilesdk_app_id": "1:329396741555:android:5112c986017e07655ad7c6",
        "android_client_info": {
          "package_name": "com.webmobril.drycleaningdriverapp"
        }
      },
      "oauth_client": [
        {
          "client_id": "329396741555-c9e2pkmbuh67oeo3ontu7qnfpd9uvu62.apps.googleusercontent.com",
          "client_type": 3
        }
      ],
      "api_key": [
        {
          "current_key": "AIzaSyCsb6jzrOSw0FGjGHFTzJWim4YrELRQff8"
        }
      ],
      "services": {
        "appinvite_service": {
          "other_platform_oauth_client": [
            {
              "client_id": "329396741555-c9e2pkmbuh67oeo3ontu7qnfpd9uvu62.apps.googleusercontent.com",
              "client_type": 3
            }
          ]
        }
      }
    },
    {
      "client_info": {
        "mobilesdk_app_id": "1:329396741555:android:e212a4525bb393f15ad7c6",
        "android_client_info": {
          "package_name": "com.webmobril.drycleaningprovider"
        }
      },
      "oauth_client": [
        {
          "client_id": "329396741555-c9e2pkmbuh67oeo3ontu7qnfpd9uvu62.apps.googleusercontent.com",
          "client_type": 3
        }
      ],
      "api_key": [
        {
          "current_key": "AIzaSyCsb6jzrOSw0FGjGHFTzJWim4YrELRQff8"
        }
      ],
      "services": {
        "appinvite_service": {
          "other_platform_oauth_client": [
            {
              "client_id": "329396741555-c9e2pkmbuh67oeo3ontu7qnfpd9uvu62.apps.googleusercontent.com",
              "client_type": 3
            }
          ]
        }
      }
    }
  ],
  "configuration_version": "1"
}